{
  "$comment": "An example of an 'AI algorithm' description that matches the schema schema_dsi_algorithm.json. This one does not have any 'models' links since we're supplied only with a docker.",
  "api_type": "multiclass",
  "docker": "registry.gitlab.com/arise-biodiversity/dsi/algorithm-containers/images/mfn_birdid_europe254",
  "short_name": "mfn_birds_europe",
  "version": "1.0",
  "availability": "public",
  "geographical_coverage": {
    "country_codes": ["AT", "BE", "BG", "HR", "CY", "CZ", "DK", "EE", "FI", "FR", "DE", "GR", "HU", "IE", "IT", "LV", "LT", "LU", "MT", "NL", "PL", "PT", "RO", "SK", "SI", "ES", "SE", "UK"]
  },
  "taxonomic coverage": {
    "https://www.catalogueoflife.org/data/taxon/V2": [
      "Biota_Animalia_Chordata_Aves"
      ]
  },
  "input": {
    "media_modality": ["audio"],
    "media_types": ["audio/mpeg", "audio/mp4", "audio/wav", "audio/x-wav", "audio/x-aiff", "audio/ogg"],
    "max_filesize_kb": 999999,
    "batch_support": false
  },
  "authors": ["Mario Lasseck"],
  "documentation": "https://....",
  "citation_info": "Text here describing a paper written by Mario",
  "inference_costs": [
    {
      "hardware_shortname": "nvidia_v100",
      "inference_time": 0.001
    }
  ],
  "configuration": {
    "container": {
      "port": 80,
      "infer_post_variable_name": "file",
      "infer_path": "identify"
    }
  }
}
